{
  "host": "localhost",
  "port": 3030,
  "public": "../public/",
  "paginate": {
    "default": 10,
    "max": 50
  },
  "tests": {
    "environmentsAllowingSeedData": [
      ""
    ]
  },
  "uploads_service_dir": "../uploads/",
  "smtp_config": {
    "host": "smtp.gmail.com",
    "port": "465",
    "secure": true,
    "user": "mieterengel.test@gmail.com",
    "pass": "xxxxxxxxxxxxxxxxxx"
  }
}
